<svg width="16" height="16" viewBox="0 0 16 16" fill="none" xmlns="http://www.w3.org/2000/svg">
<path d="M8 16C12.4183 16 16 12.4183 16 8C16 3.58172 12.4183 0 8 0C3.58172 0 0 3.58172 0 8C0 12.4183 3.58172 16 8 16Z" fill="#61A8FF"/>
<path d="M12.5218 8.08698H3.47827C3.47827 8.71132 4.02205 9.21741 4.64633 9.21741H4.60871C4.60871 9.84176 5.1148 10.3479 5.73915 10.3479C5.73915 10.9722 6.24524 11.4783 6.86958 11.4783H9.13046C9.7548 11.4783 10.2609 10.9722 10.2609 10.3479C10.8852 10.3479 11.3913 9.84176 11.3913 9.21741H11.3537C11.9779 9.21741 12.5218 8.71132 12.5218 8.08698Z" fill="#FFDA44"/>
<path d="M11.1305 6.60867C11.1305 8.33755 9.72893 9.73911 8.00006 9.73911C6.27116 9.73911 4.86963 8.33755 4.86963 6.60867" fill="#61A8FF"/>
<path d="M10.3911 6.60869L9.41403 7.06829L9.93431 8.01453L8.87338 7.81157L8.73894 8.88331L7.99997 8.09503L7.26098 8.88331L7.12657 7.81157L6.06564 8.01447L6.58588 7.06826L5.60889 6.60869L6.58592 6.14913L6.06564 5.20292L7.12654 5.40585L7.26101 4.33411L7.99997 5.12239L8.73897 4.33411L8.87338 5.40585L9.93434 5.20292L9.41406 6.14916L10.3911 6.60869Z" fill="#FFDA44"/>
</svg>
